…
The ratios can be filtered and unnested to peel away the hierarchical nesting layers and access the underlying data:

```{r}
aapl_key_ratios %>%
    filter(section == "Cash Flow") %>%
    unnest()
```

## # A tibble: 40 x 6
##    section          sub.section      group category       date       value
##    <chr>            <chr>            <dbl> <chr>          <date>     <dbl>
##  1 Valuation Ratios Valuation Ratios    86 Price to Earn… 2008-12-31  8.51
##  2 Valuation Ratios Valuation Ratios    86 Price to Earn… 2009-12-31 15.7 
##  3 Valuation Ratios Valuation Ratios    86 Price to Earn… 2010-12-31 14.4 
##  4 Valuation Ratios Valuation Ratios    86 Price to Earn… 2011-12-30  9.92
##  5 Valuation Ratios Valuation Ratios    86 Price to Earn… 2012-12-31  8.68
##  6 Valuation Ratios Valuation Ratios    86 Price to Earn… 2013-12-31 12.1 
##  7 Valuation Ratios Valuation Ratios    86 Price to Earn… 2014-12-31 16.1 
##  8 Valuation Ratios Valuation Ratios    86 Price to Earn… 2015-12-31 10.9 
##  9 Valuation Ratios Valuation Ratios    86 Price to Earn… 2016-12-30 13.7 
## 10 Valuation Ratios Valuation Ratios    86 Price to Earn… 2017-12-29 18.3 
## # ... with 30 more rows
…
wti_price_usd <- tq_get("DCOILWTICO", get = "economic.data")
wti_price_usd 
## # A tibble: 2,695 x 2
##    date       price
##    <date>     <dbl>
##  1 2008-01-01  NA  
##  2 2008-01-02  99.6
##  3 2008-01-03  99.2
##  4 2008-01-04  97.9
##  5 2008-01-07  95.1
##  6 2008-01-08  96.4
##  7 2008-01-09  95.6
##  8 2008-01-10  93.9
##  9 2008-01-11  92.7
## 10 2008-01-14  94.2
## # ... with 2,685 more rows
…
Mutate Quantitative Data
Mutating functions enable the xts/zoo, quantmod and TTR functions to shine. We’ll touch on the mutation functions briefly using the FANG data set, which consists of daily prices for FB, AMZN, GOOG, and NFLX from the beginning of 2013 to the end of 2016. We’ll apply the functions to grouped data sets to get a feel for how each works

data(FANG)
FANG
## # A tibble: 4,032 x 8
##    symbol date        open  high   low close    volume adjusted
##    <chr>  <date>     <dbl> <dbl> <dbl> <dbl>     <dbl>    <dbl>
##  1 FB     2013-01-02  27.4  28.2  27.4  28    69846400     28  
##  2 FB     2013-01-03  27.9  28.5  27.6  27.8  63140600     27.8
##  3 FB     2013-01-04  28.0  28.9  27.8  28.8  72715400     28.8
##  4 FB     2013-01-07  28.7  29.8  28.6  29.4  83781800     29.4
##  5 FB     2013-01-08  29.5  29.6  28.9  29.1  45871300     29.1
##  6 FB     2013-01-09  29.7  30.6  29.5  30.6 104787700     30.6
##  7 FB     2013-01-10  30.6  31.5  30.3  31.3  95316400     31.3
##  8 FB     2013-01-11  31.3  32.0  31.1  31.7  89598000     31.7
##  9 FB     2013-01-14  32.1  32.2  30.6  31.0  98892800     31.0
## 10 FB     2013-01-15  30.6  31.7  29.9  30.1 173242600     30.1
## # ... with 4,022 more rows
For a detailed walkthrough of the compatible functions, see the next vignette in the series, R Quantitative Analysis Package Integrations in tidyquant.

Transmute Quantitative Data, tq_transmute
Transmute the results of tq_get(). Transmute here holds almost the same meaning as in dplyr, only the newly created columns will be returned, but with tq_transmute(), the number of rows returned can be different than the original data frame. This is important for changing periodicity. An example is periodicity aggregation from daily to monthly.

FANG %>%
    group_by(symbol) %>%
    tq_transmute(select = adjusted, mutate_fun = to.monthly, indexAt = "lastof")
## # A tibble: 192 x 3
## # Groups:   symbol [4]
##    symbol date       adjusted
##    <chr>  <date>        <dbl>
##  1 FB     2013-01-31     31.0
##  2 FB     2013-02-28     27.2
##  3 FB     2013-03-31     25.6
##  4 FB     2013-04-30     27.8
##  5 FB     2013-05-31     24.4
##  6 FB     2013-06-30     24.9
##  7 FB     2013-07-31     36.8
##  8 FB     2013-08-31     41.3
##  9 FB     2013-09-30     50.2
## 10 FB     2013-10-31     50.2
## # ... with 182 more rows
Let’s go through what happened. select allows you to easily choose what columns get passed to mutate_fun. In example above, adjusted selects the “adjusted” column from data, and sends it to the mutate function, to.monthly, which mutates the periodicity from daily to monthly. Additional arguments can be passed to the mutate_fun by way of .... We are passing the indexAt argument to return a date that matches the first date in the period.

Working with non-OHLC data
Returns from FRED, Oanda, and other sources do not have open, high, low, close (OHLC) format. However, this is not a problem with select. The following example shows how to transmute WTI Crude daily prices to monthly prices. Since we only have a single column to pass, we can leave the select argument as NULL which selects all columns by default. This sends the price column to the to.period mutate function.

wti_prices <- tq_get("DCOILWTICO", get = "economic.data") 
wti_prices %>%    
    tq_transmute(mutate_fun = to.period,
                 period = "months", 
                 col_rename = "WTI Price")
## # A tibble: 124 x 2
##    date       `WTI Price`
##    <date>           <dbl>
##  1 2008-01-31        91.7
##  2 2008-02-29       102. 
##  3 2008-03-31       102. 
##  4 2008-04-30       114. 
##  5 2008-05-30       127. 
##  6 2008-06-30       140. 
##  7 2008-07-31       124. 
##  8 2008-08-29       116. 
##  9 2008-09-30       101. 
## 10 2008-10-31        68.1
## # ... with 114 more rows
Mutate Quantitative Data, tq_mutate
Adds a column or set of columns to the tibble with the calculated attributes (hence the original tibble is returned, mutated with the additional columns). An example is getting the MACD from close, which mutates the original input by adding MACD and Signal columns. Note that we can quickly rename the columns using the col_rename argument.

FANG %>%
    group_by(symbol) %>%
    tq_mutate(select     = close, 
              mutate_fun = MACD, 
              col_rename = c("MACD", "Signal"))
## # A tibble: 4,032 x 10
## # Groups:   symbol [4]
##    symbol date        open  high   low close  volume adjusted  MACD Signal
##    <chr>  <date>     <dbl> <dbl> <dbl> <dbl>   <dbl>    <dbl> <dbl>  <dbl>
##  1 FB     2013-01-02  27.4  28.2  27.4  28    6.98e7     28      NA     NA
##  2 FB     2013-01-03  27.9  28.5  27.6  27.8  6.31e7     27.8    NA     NA
##  3 FB     2013-01-04  28.0  28.9  27.8  28.8  7.27e7     28.8    NA     NA
##  4 FB     2013-01-07  28.7  29.8  28.6  29.4  8.38e7     29.4    NA     NA
##  5 FB     2013-01-08  29.5  29.6  28.9  29.1  4.59e7     29.1    NA     NA
##  6 FB     2013-01-09  29.7  30.6  29.5  30.6  1.05e8     30.6    NA     NA
##  7 FB     2013-01-10  30.6  31.5  30.3  31.3  9.53e7     31.3    NA     NA
##  8 FB     2013-01-11  31.3  32.0  31.1  31.7  8.96e7     31.7    NA     NA
##  9 FB     2013-01-14  32.1  32.2  30.6  31.0  9.89e7     31.0    NA     NA
## 10 FB     2013-01-15  30.6  31.7  29.9  30.1  1.73e8     30.1    NA     NA
## # ... with 4,022 more rows
…
First, get combined returns. The asset and baseline returns should be in wide format, which is needed for the lm function in the next step.

fb_returns <- tq_get("FB", get  = "stock.prices", from = "2016-01-01", to   = "2016-12-31") %>%
    tq_transmute(adjusted, periodReturn, period = "weekly", col_rename = "fb.returns")

xlk_returns <- tq_get("XLK", from = "2016-01-01", to = "2016-12-31") %>%
    tq_transmute(adjusted, periodReturn, period = "weekly", col_rename = "xlk.returns")

returns_combined <- left_join(fb_returns, xlk_returns, by = "date")
returns_combined
## # A tibble: 52 x 3
##    date       fb.returns xlk.returns
##    <date>          <dbl>       <dbl>
##  1 2016-01-08   -0.0478     -0.0516 
##  2 2016-01-15   -0.0242     -0.0187 
##  3 2016-01-22    0.0313      0.0264 
##  4 2016-01-29    0.146       0.0213 
##  5 2016-02-05   -0.0725     -0.0422 
##  6 2016-02-12   -0.0198     -0.00582
##  7 2016-02-19    0.0251      0.0354 
##  8 2016-02-26    0.0320      0.0148 
##  9 2016-03-04    0.00436     0.0281 
## 10 2016-03-11    0.00941     0.0106 
## # ... with 42 more rows
…
regr_fun <- function(data) {
    coef(lm(fb.returns ~ xlk.returns, data = timetk::tk_tbl(data, silent = TRUE)))
}
Step 3: Apply the custom function

Now we can use tq_mutate() to apply the custom regression function over a rolling window using rollapply from the zoo package. Internally, since we left select = NULL, the returns_combined data frame is being passed automatically to the data argument of the rollapply function. All you need to specify is the mutate_fun = rollapply and any additional arguments necessary to apply the rollapply function. We’ll specify a 12 week window via width = 12. The FUN argument is our custom regression function, regr_fun. It’s extremely important to specify by.column = FALSE, which tells rollapply to perform the computation using the data as a whole rather than apply the function to each column independently. The col_rename argument is used to rename the added columns.

returns_combined %>%
    tq_mutate(mutate_fun = rollapply,
              width      = 12,
              FUN        = regr_fun,
              by.column  = FALSE,
              col_rename = c("coef.0", "coef.1"))
## # A tibble: 52 x 5
##    date       fb.returns xlk.returns coef.0 coef.1
##    <date>          <dbl>       <dbl>  <dbl>  <dbl>
##  1 2016-01-08   -0.0478     -0.0516      NA     NA
##  2 2016-01-15   -0.0242     -0.0187      NA     NA
##  3 2016-01-22    0.0313      0.0264      NA     NA
##  4 2016-01-29    0.146       0.0213      NA     NA
##  5 2016-02-05   -0.0725     -0.0422      NA     NA
##  6 2016-02-12   -0.0198     -0.00582     NA     NA
##  7 2016-02-19    0.0251      0.0354      NA     NA
##  8 2016-02-26    0.0320      0.0148      NA     NA
##  9 2016-03-04    0.00436     0.0281      NA     NA
## 10 2016-03-11    0.00941     0.0106      NA     NA
## # ... with 42 more rows
returns_combined
## # A tibble: 52 x 3
##    date       fb.returns xlk.returns
##    <date>          <dbl>       <dbl>
##  1 2016-01-08   -0.0478     -0.0516 
##  2 2016-01-15   -0.0242     -0.0187 
##  3 2016-01-22    0.0313      0.0264 
##  4 2016-01-29    0.146       0.0213 
##  5 2016-02-05   -0.0725     -0.0422 
##  6 2016-02-12   -0.0198     -0.00582
##  7 2016-02-19    0.0251      0.0354 
##  8 2016-02-26    0.0320      0.0148 
##  9 2016-03-04    0.00436     0.0281 
## 10 2016-03-11    0.00941     0.0106 
## # ... with 42 more rows
As shown above, the rolling regression coefficients were added to the data frame.

_xy Variants, tq_mutate_xy and tq_transmute_xy
Enables working with mutation functions that require two primary inputs (e.g. EVWMA, VWAP, etc).

Mutate with two primary inputs
EVWMA (exponential volume-weighted moving average) requires two inputs, price and volume. To work with these columns, we can switch to the xy variants, tq_transmute_xy() and tq_mutate_xy(). The only difference is instead of the select argument, you use x and y arguments to pass the columns needed based on the mutate_fun documentation.

FANG %>%
    group_by(symbol) %>%
    tq_mutate_xy(x = close, y = volume, 
                 mutate_fun = EVWMA, col_rename = "EVWMA")
## # A tibble: 4,032 x 9
## # Groups:   symbol [4]
##    symbol date        open  high   low close    volume adjusted EVWMA
##    <chr>  <date>     <dbl> <dbl> <dbl> <dbl>     <dbl>    <dbl> <dbl>
##  1 FB     2013-01-02  27.4  28.2  27.4  28    69846400     28    NA  
##  2 FB     2013-01-03  27.9  28.5  27.6  27.8  63140600     27.8  NA  
##  3 FB     2013-01-04  28.0  28.9  27.8  28.8  72715400     28.8  NA  
##  4 FB     2013-01-07  28.7  29.8  28.6  29.4  83781800     29.4  NA  
##  5 FB     2013-01-08  29.5  29.6  28.9  29.1  45871300     29.1  NA  
##  6 FB     2013-01-09  29.7  30.6  29.5  30.6 104787700     30.6  NA  
##  7 FB     2013-01-10  30.6  31.5  30.3  31.3  95316400     31.3  NA  
##  8 FB     2013-01-11  31.3  32.0  31.1  31.7  89598000     31.7  NA  
##  9 FB     2013-01-14  32.1  32.2  30.6  31.0  98892800     31.0  NA  
## 10 FB     2013-01-15  30.6  31.7  29.9  30.1 173242600     30.1  30.1
## # ... with 4,022 more rows
